Suggested URL,New URL,Length,Old URL,Page Type,Top Level,Site Section,Site Section,Brief Link,Notes,Status,Author,Video,Img 1,Img 2,Img 3
/personal-injury-claim/holiday-accident-claims/,https://www.slatergordon.co.uk/personal-injury-claim/,53,No Change,Category,PI,PI,Direct users to specific PI conversion page,https://docs.google.com/document/d/1ta1nPo6mZ88jjcIbFJuIaP14ZbWOBDWSLqtQcWHugYY,,,,,204325345,233958265,222814214
/personal-injury-claim/holiday-accident-claims/air/,https://www.slatergordon.co.uk/personal-injury-claim/accident-at-work-compensation/,83,No Change,Core Service,PI,Work,Convert accident at work cases,https://docs.google.com/document/d/1txj3EaRqQ6pjgHSkVGdOnTKBYAuDgevRBQ912zfB8E0/edit,,,Derek,,255674878,194353299,
/personal-injury-claim/holiday-accident-claims/cruise-ship/,https://www.slatergordon.co.uk/personal-injury-claim/accident-at-work-compensation/big-six-health-safety-regulations/,117,N/A,Support,PI,Work,,https://docs.google.com/document/d/1ir5qPSQN4LdOefa_gsNkpDLRP9-vJKR88f0dpnWrc-c/edit,,,Derek,,255674878,,
/personal-injury-claim/holiday-accident-claims/europe/,https://www.slatergordon.co.uk/personal-injury-claim/accident-at-work-compensation/construction-site/,101,No Change,Service Page,PI,Work,A page to convert construction site cases,https://docs.google.com/document/d/1q5GE63eSVWUezijm_r2_bGMANH4eU7-cUSYLiGeKfqE/edit,,,Derek,,255674878,,
,https://www.slatergordon.co.uk/personal-injury-claim/accident-at-work-compensation/defective-equipment/,103,New,Service Page,PI,Work,A page to convert defective equipment cases,https://docs.google.com/document/d/1mgeEgMrINKw-6_xVzAiprbw9Ydr_sCYHnnAoj5lwOZY/edit,,,Derek,,255674878,,
/personal-injury-claim/holiday-accident-claims/faq/,https://www.slatergordon.co.uk/personal-injury-claim/accident-at-work-compensation/electrocution/,97,New,Service Page,PI,Work,A page to convert electrocution cases,https://docs.google.com/document/d/1npZJQGvlT_qIR2dQarAIajplofzE8yJilc9lssxPYmk/edit,,,Derek,,255674878,,
/personal-injury-claim/holiday-accident-claims/holiday-claim-guide/,https://www.slatergordon.co.uk/personal-injury-claim/accident-at-work-compensation/employers-liability-insurance/,113,New,Support,PI,Work,,https://docs.google.com/document/d/1Jov76z90GT9wFfOb69exgmPxImwRErpvT1fLWO9915I/edit,,,Derek,,255674878,,
/personal-injury-claim/holiday-accident-claims/hotel-resort/,https://www.slatergordon.co.uk/personal-injury-claim/accident-at-work-compensation/factory-warehouse/,101,New,Service Page,PI,Work,A page to convert factory accident cases,https://docs.google.com/document/d/1wmUSBlzK2p0dkO3SiV_7agFsV976zXID3D1N8D4_yG4/edit,,,Derek,,255674878,,
/personal-injury-claim/holiday-accident-claims/travel-conventions-treaties/,https://www.slatergordon.co.uk/personal-injury-claim/accident-at-work-compensation/fall-heights-objects/,104,New,Service Page,PI,Work,"A page to convert workplace fall cases, we should cover fall from heights, items falling from heights etc",https://docs.google.com/document/d/1lNngQxiAH9eDn20QHni0OZlLRsxfsYGw0SCNTi97jb0/edit,,,Derek,,255674878,,
/personal-injury-claim/holiday-accident-claims/usa/,https://www.slatergordon.co.uk/personal-injury-claim/accident-at-work-compensation/faq/,87,New,Support,PI,Work,Answering a variety of accident at work questions,https://docs.google.com/document/d/1O65i7i4Nml04m5IPOUcVxo2hpz88WLczWdTs9bfaa2A/edit,https://www.slatergordon.co.uk/media-centre/blog/2016/10/frequently-asked-questions-after-an-accident-at-work/,,FAQ,,255674878,,
/personal-injury-claim/holiday-accident-claims/winter-skiing/,https://www.slatergordon.co.uk/personal-injury-claim/accident-at-work-compensation/farm/,88,New,Service Page,PI,Work,A page to convert farm injury cases,https://docs.google.com/document/d/1BdH_7E0KODSC0YkOhSIury52esNqAkh8hK7TeOwG6jU/edit,,,Derek,,255674878,,
/personal-injury-claim/sexual-criminal-abuse/,https://www.slatergordon.co.uk/personal-injury-claim/accident-at-work-compensation/forklift/,92,New,Service Page,PI,Work,A page to convert forlift accident cases,https://docs.google.com/document/d/14BI1j6yUHwa52UXEp_FUjgQ27JiuWVsNlWeruy0e0Fo/edit,,,Derek,,255674878,,
/personal-injury-claim/sexual-criminal-abuse/criminal-injury/,https://www.slatergordon.co.uk/personal-injury-claim/accident-at-work-compensation/health-safety-dangerous-practices/,117,/personal-injury-claim/accident-at-work-compensation/health-and-safety-requirements/,Service Page,PI,Work,A page to convert other workplace injury cases that are not covered by our other suggested pages,https://docs.google.com/document/d/1sdQzU3UFGgd6ijAPQNfuSHbXW9CxwSUNbvJXCTliXqY/edit,"This page needs to cover, improper workplace training, non adherence to health and safety measures, co-worker negligence as well as dangerous practices in the workplace, even manual handling",,Derek,,255674878,,
/personal-injury-claim/sexual-criminal-abuse/abuse-guide/,https://www.slatergordon.co.uk/personal-injury-claim/accident-at-work-compensation/migrant-agency-worker/,105,New,Service Page,PI,Work,A page to convert migrant worer cases,https://docs.google.com/document/d/1ayN6PjcSQcNU8GYX1xCroOjdd_iv9FA5zeYztSsO_hs/edit,Merge with migrant workers? https://www.national-accident-helpline.co.uk/accident-claims/accidents-at-work/agency-workers-compensation explain that these workers have the same rights as a normal worker etc,,Derek,,255674878,,
/personal-injury-claim/sexual-criminal-abuse/child-abuse/,https://www.slatergordon.co.uk/personal-injury-claim/accident-at-work-compensation/military/,92,/personal-injury-claim/military-claims/,Service Page,PI,Work,Convert military injury cases,https://docs.google.com/document/d/1JHqUzBMeTVdPHCr2av_AzuvxeyyNzAdVnKjoBKxh-_U/edit,,First Draft,Derek,,134406019,224340648,
/personal-injury-claim/sexual-criminal-abuse/criminal-injury/cica-process/,https://www.slatergordon.co.uk/personal-injury-claim/accident-at-work-compensation/military/armed-forces-compensation-scheme/,125,New (is this going live ahead of time?),Support,PI,Work,,https://docs.google.com/document/d/1HiSKe9j8hF-aSBIVMKNE-sFyu-UQWCdQlo9ziqxRbDw/edit,,First Draft,Rachel,,134406019,,
/personal-injury-claim/funding-your-case/,https://www.slatergordon.co.uk/personal-injury-claim/accident-at-work-compensation/military/faq/,96,New,Support,PI,Work,,https://docs.google.com/document/d/1pdBYGDSXo1vScQFhH5TvCewgmUHKC0pVW7U2wG41b4w/edit,There are a wide variety of questions in the brochure,,FAQ,,134406019,,
/personal-injury-claim/sexual-criminal-abuse/confidentiality-anonymity/,https://www.slatergordon.co.uk/personal-injury-claim/accident-at-work-compensation/military/noise-induced-hearing-loss/,,,Service Page,Pi,,,https://docs.google.com/document/d/1S4N2pac8m2Twx-4UPe8ZN9ymamw0ExFy/edit,,,,,134406019,,
/personal-injury-claim/sexual-criminal-abuse/faq/,https://www.slatergordon.co.uk/personal-injury-claim/accident-at-work-compensation/military/ptsd/,97,New,Support,PI,Work,"Informational PTSD page, needs to cover military scenrions but also mention that sometimes it can occur in other areas.",https://docs.google.com/document/d/1S3F93UI1sD7nWQuJ4ENhVrLf6vStc0zQ3bpDXp88EIc/edit,,First Draft,Derek,,134406019,,
/personal-injury-claim/funding-your-case/,https://www.slatergordon.co.uk/personal-injury-claim/accident-at-work-compensation/needlestick/,95,New,Service Page,PI,Work,A page to convert needlestick injuries,https://docs.google.com/document/d/17wg-4dYfFdPgorGhS8vfm8w-QxJylar-HzXkWfbYDEw/edit,,,Derek,,255674878,,
/personal-injury-claim/faulty-products/,https://www.slatergordon.co.uk/personal-injury-claim/accident-at-work-compensation/steps-to-take/,97,New,Support,PI,Work,Steps to take if you have been injured at work.,https://docs.google.com/document/d/1Z0t7Vn3bDg2QdErBVpumSp15GjVJ-DhVCi35tzCTJGU/edit,https://www.leighday.co.uk/Personal-Injury-and-industrial-disease/Workplace-accidents/Steps-to-take-if-you%E2%80%99ve-been-injured-at-work,,Derek,,255674878,,
/personal-injury-claim/faulty-products/claim-guide/,https://www.slatergordon.co.uk/personal-injury-claim/accident-at-work-compensation/toxic-noxious-guide/,103,New,Service Page,PI,Work,,We have emailed the new EL team,"A list of chemicals/ vapours etc that can cause injury at work such as caustic, chemical burns etc These may cause immediate injury and therefore not quite be classifeid as industrial disease but we should crosslink.",,,,255674878,,
/personal-injury-claim/faulty-products/drug-supplement/,https://www.slatergordon.co.uk/personal-injury-claim/claiming-behalf/,69,New,Support,PI,PI,People looking to claim on behalf as someone else. This may be a child or alternatively a fatal case where the injured party can no longer make a claim,https://docs.google.com/document/d/1DUpcnoyQFqDovBf28vJ_x6C60fm3sBiiqriV_1ETnNU/edit,https://www.slatergordon.co.uk/media-centre/blog/2016/03/personal-injury-claims-on-behalf-of-children-is-court-approval-needed/,First Draft,Derek,,204325345,,
/personal-injury-claim/faulty-products/electrical-products/,https://www.slatergordon.co.uk/personal-injury-claim/claiming-behalf/children-court-approval/,93,/media-centre/blog/2016/03/personal-injury-claims-on-behalf-of-children-is-court-approval-needed/,Support,PI,PI,,https://docs.google.com/document/d/1ls1kO0USn_z307nRtz1pO6H5e5vU0wwSk1kMvhFvBWs/edit,Rewrite of https://www.slatergordon.co.uk/media-centre/blog/2016/03/personal-injury-claims-on-behalf-of-children-is-court-approval-needed/ (could simply re-purpose,,,,204325345,,
/personal-injury-claim/faulty-products/faq/,https://www.slatergordon.co.uk/personal-injury-claim/claims-process/,68,New,Support,PI,PI,A step to step guide/flowchart of the claims process/ Timeline,https://docs.google.com/document/d/1-T_BYudBG1simc--ki0n9uTwBu_UCBIzK-fe4kTx5QU/edit,,,Rachel,,204325345,,
/personal-injury-claim/industrial-disease/,https://www.slatergordon.co.uk/personal-injury-claim/compensation-claims-scotland/,82,No Change,Category,PI,PI,reuse https://www.slatergordon.co.uk/personal-injury-claim/compensation-claims-scotland/,https://docs.google.com/document/d/1tR075s0vpAEZpFIWu5g4EWmUVDj0b_ffGVz5xLObgdE/edit,,,,,204325345,233958265,
/personal-injury-claim/industrial-disease/asbestosis-mesothelioma/,https://www.slatergordon.co.uk/personal-injury-claim/faq/,57,New,Support,PI,PI,Commonly answered PI questions,https://docs.google.com/document/d/1BaLbZb6ieEkZNlsodxDrXnoUY7qkjhLTvCNfhLFqPIU/edit,,,FAQ,,204325345,,
/personal-injury-claim/industrial-disease/asbestosis-mesothelioma/am-i-at-risk/,https://www.slatergordon.co.uk/personal-injury-claim/faulty-products/,69,No Change,Core Service,PI,Defective Products,Convert product liability cases,https://docs.google.com/document/d/12PqFpdIQhXetZTJpfDSkbHNxZtL43iIq2MsCOxshavw/edit,,First Draft,Derek,,140393239,111791984,
/personal-injury-claim/industrial-disease/asbestosis-mesothelioma/causes-symptoms/,https://www.slatergordon.co.uk/personal-injury-claim/faulty-products/claim-guide/,81,New,Support,PI,Defective Products,,https://docs.google.com/document/d/1zMr9U0yfjNndDrRyGPz5xYQ6WTdqUhm-tamnoTieo-U/edit,,First Draft,Derek,,140393239,,
/personal-injury-claim/road-traffic-accidents/,https://www.slatergordon.co.uk/personal-injury-claim/faulty-products/drug-supplement/,85,New,Service Page,PI,Defective Products,Convert faulty drug claims,https://docs.google.com/document/d/1GV7hvcvPTZ3dNPbbjh1wRm1Xj6xMs5N0eCuzjhrNaMc/edit,,First Draft,Derek,,140393239,,
/personal-injury-claim/industrial-disease/asbestosis-mesothelioma/asbestos-regulations/,https://www.slatergordon.co.uk/personal-injury-claim/faulty-products/electrical-products/,89,New,Service Page,PI,Defective Products,Convert faulty electrical goods claims,https://docs.google.com/document/d/1jmTGUZNCmfOtCdRdEg9qqKR36QgzunDKIRAU3fB-2BE/edit,,First Draft,Derek,,140393239,,
/personal-injury-claim/industrial-disease/asbestosis-mesothelioma/asbestos-medical-definitions/,https://www.slatergordon.co.uk/personal-injury-claim/funding-your-case/,71,New,Support,PI,PI,Discuss alternative funding options such as insurance etc but point users to NWNF,https://docs.google.com/document/d/1ABaVA4xtoloI5CbB1qlree0g89yyndviy2SmySvZoO8/edit,,,,,204325345,,
/personal-injury-claim/industrial-disease/asbestosis-mesothelioma/asbestos-timeline-history/,https://www.slatergordon.co.uk/personal-injury-claim/holiday-accident-claims/,77,No Change,Core Service,PI,Abroad,Convert travel cases,https://docs.google.com/document/d/1h8uxWPdAo1BzOS7GdYvT5fxE_pJU3sxXl8Co5zG_WMM/edit,,,Derek,,262520595,82909040,
/personal-injury-claim/industrial-disease/asbestosis-mesothelioma/asbestos-statistics/,https://www.slatergordon.co.uk/personal-injury-claim/holiday-accident-claims/air/,81,/personal-injury-claim/holiday-accident-claims/air-accident-claims/,Service Page,PI,Abroad,Page to convert accidents whilst on a plane,https://docs.google.com/document/d/1VsqyvjoOJkt7S6ZH0ebgPf2OtJUsakxDrMmEwYMfrus/edit,,,Derek,,262520595,,
/personal-injury-claim/industrial-disease/asbestosis-mesothelioma/benefits/,https://www.slatergordon.co.uk/personal-injury-claim/holiday-accident-claims/cruise-ship/,89,/personal-injury-claim/holiday-accident-claims/cruise-ship-accident-claims/,Service Page,PI,Abroad,Page to convert accidents on a cruise ship,https://docs.google.com/document/d/1tE-tmn0eM0WOjMn07svwH8C4rcTHQUFL0kYsvV4N_78/edit,https://www.slatergordon.co.uk/personal-injury-claim/holiday-accident-claims/cruise-ship-accident-claims/,,Jack,,262520595,,
/personal-injury-claim/industrial-disease/asbestosis-mesothelioma/mesothelioma-day/,https://www.slatergordon.co.uk/personal-injury-claim/holiday-accident-claims/europe/,84,New,Service Page,PI,Abroad,Page to convert accidents in the EU,https://docs.google.com/document/d/1wflmipf5m3odvT4uD-Gqxc4lpkd9qZz8Pq-zoPa0ySw/edit,,,Derek,,262520595,,
/personal-injury-claim/industrial-disease/asbestosis-mesothelioma/employers-duty-of-care/,https://www.slatergordon.co.uk/personal-injury-claim/holiday-accident-claims/faq/,81,New,Support,PI,Abroad,Freequently asked questions for accidents abroad,https://docs.google.com/document/d/1ATh_2EJuLuHJn0MS4elrK_ZChqRXtSRPhBmDrttiUhI/edit,fac,,FAQ,,262520595,,
/personal-injury-claim/industrial-disease/asbestosis-mesothelioma/guide-to-expats/,https://www.slatergordon.co.uk/personal-injury-claim/holiday-accident-claims/holiday-claim-guide/,97,New,Support,PI,Abroad,"A guide to claiming abroad, what evidence/ information you need",https://docs.google.com/document/d/1bH_uOsYijE2UPRkTWCjLOt6pi0XmU3W4oFOrLAc0piI/edit,,,Derek,,262520595,,
/personal-injury-claim/industrial-disease/asbestosis-mesothelioma/how-is-mesothelioma-diagnosed/,https://www.slatergordon.co.uk/personal-injury-claim/holiday-accident-claims/hotel-resort/,90,/personal-injury-claim/holiday-accident-claims/hotel-accident-claims/,Service Page,PI,Abroad,Page to convert accidents whilst at a hotel or resort,https://docs.google.com/document/d/192QwTa7Hxk2gw0bNjJ7n9B_2xnQpFNMKYF4C2uHKIMo/edit,Excursion removed due to poor performance can be redirected here. Excursions and day trips should still be mentioned,,Derek,,262520595,,
/personal-injury-claim/industrial-disease/asbestosis-mesothelioma/risks-impropper-handling/,https://www.slatergordon.co.uk/personal-injury-claim/holiday-accident-claims/travel-conventions-treaties/,105,New,Support,PI,Abroad,,https://docs.google.com/document/d/1cbPqzsHjItp5B_oDtx5DV8VG-tR2kRCesEDCKsPFWvs/edit,,,Derek,,262520595,,
/personal-injury-claim/industrial-disease/asbestosis-mesothelioma/support/,https://www.slatergordon.co.uk/personal-injury-claim/holiday-accident-claims/usa/,81,/personal-injury-claim/holiday-accident-claims/usa-accident-claims/,Service Page,PI,Abroad,Page to convert accidents in the USA,https://docs.google.com/document/d/1xGX1HZWL1wXf4eQSPWdupCi1YqIacw_6GWiYM9XfBG4/edit,,,Derek,,262520595,,
/personal-injury-claim/road-traffic-accidents/faq/,https://www.slatergordon.co.uk/personal-injury-claim/holiday-accident-claims/winter-skiing/,91,/personal-injury-claim/holiday-accident-claims/winter-sports-injuries/,Service Page,PI,Abroad,Page to convert winter and skiing accidents,https://docs.google.com/document/d/15vuPUgsWkJCMQRhAHW8oodwglldfaWwBsHxGtxNeC5Q/edit,https://www.slatergordon.co.uk/personal-injury-claim/holiday-accident-claims/winter-sports-injuries/,,Jack,,262520595,,
/personal-injury-claim/fatal-accident-claims/bereavement-useful-support-groups/,https://www.slatergordon.co.uk/personal-injury-claim/how-to-make-a-claim/,73,New,Support,PI,PI,Page discussing all the pre-requisites of making a claim,https://docs.google.com/document/d/1Us2GqxaYXknVmJVX3fKqPubVOMVgTnK1/edit,,,,,204325345,,
/personal-injury-claim/faulty-products/claim-guide/,https://www.slatergordon.co.uk/personal-injury-claim/illness/,61,/personal-injury-claim/poisoning-claims/,Core Service,PI,Illness,Convert illness cases,https://docs.google.com/document/d/1J-zMi6w63FbQIPmcRJSt4I4Jxu7IxQT9ilnIcKaV15w/edit,,SEO,Derek,,250351248,244930688,
/personal-injury-claim/industrial-disease/chemical-poisoning/,https://www.slatergordon.co.uk/personal-injury-claim/illness/carbon-monoxide/,77,/personal-injury-claim/poisoning-claims/carbon-monoxide-poisoning-claims/,Service Page,PI,Illness,A page to convert CO related ilness claims,https://docs.google.com/document/d/1moWFlSrnbvasuak8ULt0s6QwiaHJdUQnAujy3MuLnwE/edit,,SEO,Derek,,250351248,,
/personal-injury-claim/industrial-disease/claim-guide/,https://www.slatergordon.co.uk/personal-injury-claim/illness/carbon-monoxide/expert-guide/,90,New,Support,PI,Illness,A guide on what ot look out for if you are worried about CO poisoning,https://docs.google.com/document/d/1-63hY4niTOo-sjp3N70Qs1iy0smphiCOaxqQBJ6Pcgk/edit,https://www.slatergordon.co.uk/resources/expert-guides/personal-injury-carbon-monoxide-poisoning/,SEO,Derek,,250351248,,
/personal-injury-claim/industrial-disease/COSHH/,https://www.slatergordon.co.uk/personal-injury-claim/illness/carbon-monoxide/landlord-legal-requirements/,105,New,Support,PI,Illness,A guide for landlord that covers the legal requirements when concerning CO alamrs and gas safety. It might be worth mentioning CO2 and smoke detectors,https://docs.google.com/document/d/1xJtPMfJaVW3yIJIU3gMsu0Q6JdhISQIPM_Dxo2csQug/edit,https://www.simplybusiness.co.uk/knowledge/articles/2017/05/smoke-and-carbon-monoxide-detector-regulations-for-uk-landlords/,SEO,Derek,,250351248,,
/personal-injury-claim/industrial-disease/faq/,https://www.slatergordon.co.uk/personal-injury-claim/illness/carbon-monoxide/what-to-do-if-worried-about-co/,108,New,Support,PI,Illness,"A guide to act if you believe there is a CO, CO2 or gas leak",https://docs.google.com/document/d/1DnlR3UgVJtb_nvYW6LHUo-S4oicQUbbqsnAjyXHE0jo/edit,https://www.gassaferegister.co.uk/help-and-advice/carbon-monoxide-poisoning/ and https://www.nhs.uk/conditions/carbon-monoxide-poisoning/,SEO,Derek,,250351248,,
/personal-injury-claim/industrial-disease/industrial-deafness-tinnitus/,https://www.slatergordon.co.uk/personal-injury-claim/illness/food-poisoning/,76,/personal-injury-claim/poisoning-claims/food-poisoning/,Service Page,PI,Illness,"We should cover all the most common causes of food poisoning and how they most likely occur: Salmonella
Shigella
E.coli
Giardia
Norovirus
Rotavirus
Campylobacter
Cryptosporidium",https://docs.google.com/document/d/1M2iZJCEbbOlb-d5zHOgxgWRDjCyxnvDPOoDI4QbsIEw/edit,E coli page doesnt perform well. It is worth merging these two pages and covering e coli as a common example of food poisoning. We should also cover food allergies and any other forms of food poisoning,First Draft,Derek,,250351248,,
/personal-injury-claim/industrial-disease/occupational-asthma/,https://www.slatergordon.co.uk/personal-injury-claim/illness/food-poisoning/causes-prevention/,94,New,Support,PI,Illness,"A guide on avoiding food poisoning, common places where it occurs etc and signs to look out for",https://docs.google.com/document/d/1P3zv1UB5Og8dV5BtlLcp6wd8rAt1tsqD9PcZzNxUskI/edit,https://www.slatergordon.co.uk/media-centre/blog/2015/02/causes-of-food-poisoning-and-tips-to-prevent-it/,First Draft,Derek,,250351248,,
/personal-injury-claim/industrial-disease/repetitive-strain-injury/,https://www.slatergordon.co.uk/personal-injury-claim/illness/food-poisoning/faq/,80,New,Support,PI,Illness,Common food poisoning and allergy questions,https://docs.google.com/document/d/1Jgu9pqzZccXaiILIcsZfplvheMCx9I7z3UpEdlR2Njg/edit,,,FAQ,,250351248,,
/personal-injury-claim/industrial-disease/silicosis/,https://www.slatergordon.co.uk/personal-injury-claim/illness/food-poisoning/restaurant-guidelines/,98,/media-centre/blog/2018/01/allergies-what-precautions-do-restaurants-have-to-take-to-keep-customers-safe/,Support,PI,Illness,,https://docs.google.com/document/d/1USpSX-g-qT8F_Wc2ejG-HvFABx9rfXYxfdu7cyZusNE/edit,Re-write of https://www.slatergordon.co.uk/media-centre/blog/2018/01/allergies-what-precautions-do-restaurants-have-to-take-to-keep-customers-safe/,,Rachel,,250351248,,
/personal-injury-claim/industrial-disease/skin-conditions-dermatitis/,https://www.slatergordon.co.uk/personal-injury-claim/illness/guide/,67,New,Support,PI,Illness,evidence needed to collect,https://docs.google.com/document/d/1Zj-7lH7pTsboLyaEOFLnK1xaXApg5WsPcYUl7jkr2Nk/edit,,First Draft,Derek,,250351248,,
/personal-injury-claim/industrial-disease/turner-newall/,https://www.slatergordon.co.uk/personal-injury-claim/illness/water-contamination/,81,/personal-injury-claim/poisoning-claims/water-contamination-claims/,Service Page,PI,Illness,Converting water contamination cases,https://docs.google.com/document/d/1oWgim62JG3vEmfLJ3RB3NZ-suPVchsmKTxRo76hldmc/edit,We should cover legionaires disease as well as cryptosporidiosis Also pontiac fever and lochgoilhead,First Draft,Derek,,250351248,,
/personal-injury-claim/industrial-disease/vibration/,https://www.slatergordon.co.uk/personal-injury-claim/industrial-disease/,72,/personal-injury-claim/accident-at-work-compensation/industrial-disease-claims/,Core Service,PI,ID,Convert industrial disesaes cases,https://docs.google.com/document/d/1X8UDlKI2gYBraKlfP03uqOVx-rVmwPlidVtqyXRNbEk/edit,"Here it is probably worth covering other injuries that we do not have specific pages for such as: Bursitis, Ulnar Neuropathy, Cubital Tunnel Osteoarthritis etc",First Draft,Derek,,205895667,194973397,
/personal-injury-claim/industrial-disease/work-related-cancer/,https://www.slatergordon.co.uk/personal-injury-claim/industrial-disease/asbestos-mesothelioma/,94,/personal-injury-claim/asbestos-claims/mesothelioma-compensation-claims/,Service Page,PI,ID,A page to convert asbestos related cases,https://docs.google.com/document/d/1vksqwszhwaVFFQxhHRk5TBHGRedEiV4KsDmftDfMBEA/edit,,First Draft,Derek,,207649491,140064483,
/personal-injury-claim/illness/,https://www.slatergordon.co.uk/personal-injury-claim/industrial-disease/asbestos-mesothelioma/am-i-at-risk/,107,/personal-injury-claim/asbestos-claims/professions-at-risk-of-an-asbestos-related-disease/,Support,PI,ID,A page detailing well known hystorical uses and how people tend to be affected.,https://docs.google.com/document/d/1_fVt0nqZ7NaJgjIrNtpztYGd7ju5YNQFu3nHAHD2Xm4/edit,,First Draft,Derek,,207649491,,
/personal-injury-claim/illness/carbon-monoxide/,https://www.slatergordon.co.uk/personal-injury-claim/industrial-disease/asbestos-mesothelioma/asbestos-lung-cancer,114,New,Support,PI,ID,A page about asbestos related lung cancer ,https://docs.google.com/document/d/11zdrRt35TEzNsukLPlj_JjdVuayHbCulMzP1ZVD2mu0/edit,,,Jack,,207649491,,
/personal-injury-claim/illness/carbon-monoxide/expert-guide/,https://www.slatergordon.co.uk/personal-injury-claim/industrial-disease/asbestos-mesothelioma/asbestos-medical-definitions/,123,/personal-injury-claim/asbestos-claims/asbestos-compensation-claim-medical-definitions/,Support,PI,ID,,https://docs.google.com/document/d/1zBXNF9S-9zKIs-FMUg-XVWzNANxe7lIHknS1l5JA73g/edit,Re-use https://www.slatergordon.co.uk/personal-injury-claim/asbestos-claims/asbestos-compensation-claim-medical-definitions/,,Jack,,207649491,,
/personal-injury-claim/illness/carbon-monoxide/landlord-legal-requirements/,https://www.slatergordon.co.uk/personal-injury-claim/industrial-disease/asbestos-mesothelioma/asbestos-register/,112,https://www.slatergordon.co.uk/asbestos-register/,Support,PI,ID,,,,,,,207649491,,
/personal-injury-claim/illness/carbon-monoxide/what-to-do-if-worried-about-co/,https://www.slatergordon.co.uk/personal-injury-claim/industrial-disease/asbestos-mesothelioma/asbestos-regulations/,115,New,Support,PI,ID,UK regulations explained and how they have changed over the years,https://docs.google.com/document/d/1l-iPk5pfE9fHg_CnucTItxLFuvr7nyFwwfYZxPfVyxQ/edit,,First Draft,Derek,,207649491,,
/personal-injury-claim/illness/food-poisoning/,https://www.slatergordon.co.uk/personal-injury-claim/industrial-disease/asbestos-mesothelioma/asbestos-statistics/,114,New,Support,PI,ID,UK asbestos statistics explained and updated yearly. Disucssing the 2015-2020 peak,https://docs.google.com/document/d/1a-kpa1TUnH7ZoICjR6hvPBM_OSi645HZ1v_nlYVFY1o/edit,http://www.hse.gov.uk/statistics/causdis/asbestos-related-disease.pdf https://www.leighday.co.uk/Personal-Injury-and-industrial-disease/Asbestos-claims-and-mesothelioma-claims/Asbestos-claims-by-region-(1)/,,Jack,,207649491,,
/personal-injury-claim/illness/food-poisoning/causes-prevention/,https://www.slatergordon.co.uk/personal-injury-claim/industrial-disease/asbestos-mesothelioma/asbestos-timeline-history/,120,/personal-injury-claim/asbestos-claims/history-and-regulation-of-asbestos/,Support,PI,ID,Re-use https://www.slatergordon.co.uk/personal-injury-claim/asbestos-claims/history-and-regulation-of-asbestos/,https://docs.google.com/document/d/1x9LqvJefiVMsufiJIAn-LiNDuxR-wUMfGp8726Jqw7c/edit,,,,,207649491,,
/personal-injury-claim/illness/food-poisoning/faq/,https://www.slatergordon.co.uk/personal-injury-claim/industrial-disease/asbestos-mesothelioma/asbestosis/,105,new,Support,PI,ID,A page covering asbestosis ,https://docs.google.com/document/d/18K6jr4w_4uL1vENDyjp5U694Wqd5PV12GdlfjkDlFtU/edit,,,,,207649491,,
/personal-injury-claim/illness/food-poisoning/restaurant-guidelines/,https://www.slatergordon.co.uk/personal-injury-claim/industrial-disease/asbestos-mesothelioma/employers-duty-of-care/,117,New,Support,PI,ID,A page discussing employers responsabilites. This will give potentially affected employees the opportunity to spot any cases where the correct practice was not followed,https://docs.google.com/document/d/10XYTz6KZlVLZMLRBng9BTbWvkKfnX6r02OAd0TJ7N50/edit,https://www.slatergordon.co.uk/media-centre/blog/2017/01/an-employers-duty-to-protect-workers-from-asbestos/,First Draft,Derek,,207649491,,
/personal-injury-claim/illness/guide/,https://www.slatergordon.co.uk/personal-injury-claim/industrial-disease/asbestos-mesothelioma/faq/,98,New,Support,PI,ID,Asbestos FAQ,https://docs.google.com/document/d/1Jjaya2t0-q_5hiesXNBaYH8CdwkFJylkuPRLgJHwkp4/edit,,,,,207649491,,
/personal-injury-claim/illness/water-contamination/,https://www.slatergordon.co.uk/personal-injury-claim/industrial-disease/asbestos-mesothelioma/guide-to-expats/,110,New,Support,PI,ID,"A page to explain that asbestosis can take 20 years to take effect, you might have moved abroad but you can still claim in the british court system",https://docs.google.com/document/d/1NracowcUXbvIjXkaaTNyI3mr-Uruy2pXorPRSq6QwzQ/edit,,,Rachel,,207649491,,
/personal-injury-claim/,https://www.slatergordon.co.uk/personal-injury-claim/industrial-disease/asbestos-mesothelioma/mesothelioma-day/,111,/personal-injury-claim/asbestos-claims/action-mesothelioma-day/,Support,PI,ID,Re-use https://www.slatergordon.co.uk/personal-injury-claim/asbestos-claims/action-mesothelioma-day/,https://docs.google.com/document/d/1rvnSKUUDHNNgUzvn6XkumFXwWvyhS4YYNq2K3dKhcO0/edit,,,,,207649491,,
/personal-injury-claim/compensation-claims-scotland/,https://www.slatergordon.co.uk/personal-injury-claim/industrial-disease/asbestos-mesothelioma/mesothelioma/,107,NEW,Support,PI,ID,A page covering mesothelioma ,https://docs.google.com/document/d/15ETxj2MQxELxoDqNvw_1OGUdNomGmALHBq4MHTVI3xY/edit,,First Draft,Rach ,,207649491,,
/personal-injury-claim/afterclaim-support/,https://www.slatergordon.co.uk/personal-injury-claim/industrial-disease/asbestos-mesothelioma/pleural-thickening/,113,new,Support,PI,ID,A page covering pleural thickening ,https://docs.google.com/document/d/1ZM8260HQQZFfn3a67GplIF4MAdZEDnHH26sxeHvwvXk/edit,,,,,207649491,,
/personal-injury-claim/claiming-behalf/,https://www.slatergordon.co.uk/personal-injury-claim/industrial-disease/asbestos-mesothelioma/support/,102,/personal-injury-claim/asbestos-claims/professions-at-risk-of-an-asbestos-related-disease/,Support,PI,ID,,https://docs.google.com/document/d/1vY45vRJF9bhUcgNNENo0iHn8RbkYEfyM8FJ8dtOU-GE/edit,,First Draft,Derek,,207649491,,
/personal-injury-claim/claimin-behalf/children-court-approval/,https://www.slatergordon.co.uk/personal-injury-claim/industrial-disease/asbestos-mesothelioma/turner-newall/,108,New,Support,PI,ID,"Page to convert Turner and Newall affected cases, talk to Rachel",https://docs.google.com/document/d/1PSKGu69iXEbNR1Eil_CMLXiPF8CZ_wRA/edit,,,Rachel,,207649491,,
/personal-injury-claim/claims-process/,https://www.slatergordon.co.uk/personal-injury-claim/industrial-disease/chemical-poisoning/,91,New,Service Page,PI,ID,A page to convert chemical poisoning claims,https://docs.google.com/document/d/1hz8CMwBjK63Dqf7IR0nNrzoyS3odt04FWzMqPhRrVL0/edit,"This page should list the chemicals that people might work with that can cause these problems and list the various issues they can cause. Such as: Nasal cancer 
Bladder Cancer
Skin Cancer 
Lung Cancer (non asbestos related)
Occupational dermatitis 
Occupational asthma 
These should then link through where a relevant page is in existant ",First Draft,Derek,,205895667,,
/personal-injury-claim/faq/,https://www.slatergordon.co.uk/personal-injury-claim/industrial-disease/claim-guide/,84,New,Support,PI,ID,A page discussing how to go about claiming from work and the different steps and requirements that are necessary,https://docs.google.com/document/d/1Xf-ftDqLH_dIjacYbs1NmkzFtjZd9eU1/edit,,,,,205895667,,
/personal-injury-claim/funding-your-case/,https://www.slatergordon.co.uk/personal-injury-claim/industrial-disease/coshh/,78,New,Support,PI,ID,,https://docs.google.com/document/d/1AMVTzU9kBfeQB_WNLtllR912zS4iCSzs/edit,http://www.hse.gov.uk/coshh/,,Rachel,,205895667,,
/personal-injury-claim/how-to-make-a-claim/,https://www.slatergordon.co.uk/personal-injury-claim/industrial-disease/faq/,76,New,Support,PI,ID,Inudtrial disease most common questions that are not covered in other pages.,https://docs.google.com/document/d/1bnEfcW_EPiimadVro92-razIu-lX1ss_cxnRjMXXhmo/edit,,,FAQ,,205895667,,
/personal-injury-claim/legal-dictionary/,https://www.slatergordon.co.uk/personal-injury-claim/industrial-disease/industrial-deafness-tinnitus/,101,/personal-injury-claim/accident-at-work-compensation/industrial-deafness-claims/,Service Page,PI,ID,A page to convert industrial defness claims,https://docs.google.com/document/d/1sVj3WUm5mV1vVtsJda7znBWE41Ql4v4wY5SojH1Jec4/edit,https://www.slatergordon.co.uk/media/5750416/workrelatedhearinglossandtinnitus.pdf must also mention accoustic shock,First Draft,Derek,,205895667,,
/personal-injury-claim/medical-assessment/,https://www.slatergordon.co.uk/personal-injury-claim/industrial-disease/industrial-injuries-disablement-benefit/,112,/personal-injury-claim/asbestos-claims/benefits-of-people-affected/,Support,PI,ID,"What benefits can people and family affected by asbestos related illnesses can expect ot receive, this is quite specific and different from normal ID benefits",https://docs.google.com/document/d/1xHXDP_DmELTea3hza8NLZEUDwowzchzE4cUv-fdK4FU/edit,,First Draft,Derek,,205895667,,
/personal-injury-claim/no-win-no-fee-claims/,https://www.slatergordon.co.uk/personal-injury-claim/industrial-disease/occupational-asthma/,92,New,Service Page,PI,ID,A page to convert occupational asthma,https://docs.google.com/document/d/10te6EovmpdKrm1QV5sd10uuUemH46xWVyLbJAXnvmwU/edit,,First Draft,Derek,,205895667,,
/personal-injury-claim/no-win-no-fee-claims/faq/,https://www.slatergordon.co.uk/personal-injury-claim/industrial-disease/repetitive-strain-injury/,97,New,Service Page,PI,ID,,https://docs.google.com/document/d/13LZFzeBDYbuYR73s1hBRybsJNQV1LzCj5NuDB-naTFQ/edit,•	RSI/WRULD/Musculo Skeletal disorders/ Cubital TS – all repetitive type conditions. ,First Draft,Derek,,205895667,,
/personal-injury-claim/personal-injury-debt/,https://www.slatergordon.co.uk/personal-injury-claim/industrial-disease/silicosis/,82,New,Service Page,PI,ID,A page to convert silicosis cases,https://docs.google.com/document/d/1QXs8XuQLFO0-utkDm_2aFBRNUdeRgEYCumnV0jMijYk/edit,,First Draft,Derek,,205895667,,
/personal-injury-claim/signed-a-waiver/,https://www.slatergordon.co.uk/personal-injury-claim/industrial-disease/skin-conditions-dermatitis/,99,New,Service Page,PI,ID,A page to convert skin condition cases,https://docs.google.com/document/d/1cLc7d0f5Twlj853LtLhrK3PCg017FigKDGRL0KgTpuI/edit,https://www.slatergordon.co.uk/media/402227/industrial-dermatitis.pdf,First Draft,Derek,,205895667,,
/personal-injury-claim/what-can-i-claim-for/,https://www.slatergordon.co.uk/personal-injury-claim/industrial-disease/vibration-injury/,89,/personal-injury-claim/accident-at-work-compensation/hand-arm-vibration-claims/,Service Page,PI,ID,,https://docs.google.com/document/d/1iNRcm2d8Zqm8Q8VzFLLV-VIiLKrnUknZHCIEi2jNNpo/edit,"Need to cover VWF, Carpal Tunnel & HAVS (Ulnar/Cubital?) •        VWF/HAVS/ CTS/Whole Body Vibration/Dupreytrens Contractions – this should be one page for all as they’re all vibration related conditions",First Draft,Derek,,205895667,,
/personal-injury-claim/strong-claim-solicitor-take-it-on/,https://www.slatergordon.co.uk/personal-injury-claim/industrial-disease/work-related-cancer/,92,New,Service Page,PI,ID,Convert alternate cases of work related cancer that are not asbestos,https://docs.google.com/document/d/1bXJCh47TrG5ehLf4R2AAg_HpK0PCbcU4pTGLKCg5OnI/edit,Cover all the different types of work caused cancer,First Draft,Derek,,205895667,,
/personal-injury-claim/injury-in-public/,https://www.slatergordon.co.uk/personal-injury-claim/injury-in-public/,70,No Change,Service Page,PI,Public,Convert public injury cases,https://docs.google.com/document/d/1LSrgygSu6Nn-2pAzaWFcS28RozdphvlDXmPmHWrumf4/edit,,Legal,Derek,,253265215,247763215,247763215
/personal-injury-claim/injury-in-public/council-highways-agency/,https://www.slatergordon.co.uk/personal-injury-claim/injury-in-public/animals/,78,New,Service Page,PI,Public,Convert animal cases such as horses & dogs,https://docs.google.com/document/d/1wzZKQu56CwheerAxFfAtYcqIvJgoXZ-HdpjBc2rkAYo/edit#,,Legal,Derek,,253265215,,
/personal-injury-claim/injury-in-public/council-highways-agency/potholes/,https://www.slatergordon.co.uk/personal-injury-claim/injury-in-public/council-highways-agency/,94,New,Service Page,PI,Public,Page to convert cases claiming against government bodies.,https://docs.google.com/document/d/1YsMR2tyIuYs1MeMHGtEqZOZPB1sAGr7CqnzLFkWO27o/edit,"How to take council to court after after 
https://www.first4lawyers.com/injury-type/how-to-guides/how-to-take-the-council-to-court-after-an-accident-or-injury/
I'VE SENT THIS TO OL/PL FOR SIGN OFF - RACH ",Legal,Derek,,253265215,,
/personal-injury-claim/injury-in-public/faq/,https://www.slatergordon.co.uk/personal-injury-claim/injury-in-public/council-highways-agency/potholes/,103,New,Support,PI,Public,"This is a guide to claiming for potholes. Again state if there is an injury we can help you, but if its just care damage here is some content that can help you",https://docs.google.com/document/d/1VEXK7uH8NeTH4QWc-DWHQkpXUbcCL1qoZxZi0aQ2qL0/edit,I'VE SENT THIS TO OL/PL FOR SIGN OFF. I'VE ALSO ADDED SOME COMMENTS FOR JACK. RACH,Legal,Derek,,253265215,,
/personal-injury-claim/injury-in-public/public-injury-guide/,https://www.slatergordon.co.uk/personal-injury-claim/injury-in-public/faq/,74,New,Support,PI,Public,,https://docs.google.com/document/d/1jnNBRuI-hCHMihJYIIAPCmgug8Sh6FouCINO023yzKE/edit,We have far less pages/topics covered compared to IM we should definitely cover some of those topics in an FAQ page,,Charlotte ,,253265215,,
/personal-injury-claim/accident-at-work-compensation/military/noise-inudiced-hearing-loss/,https://www.slatergordon.co.uk/personal-injury-claim/injury-in-public/public-injury-guide/,90,New,Support,PI,Public,,https://docs.google.com/document/d/1hT6Sa8JpHOyoncfhYqo3pF9tVBbFA4e87ppgIhdJuOA/edit,https://www.slatergordon.co.uk/resources/expert-guides/personal-injury-accidents-in-public-places/,,Derek,,253265215,,
/personal-injury-claim/injury-in-public/public-liability-insurance/,https://www.slatergordon.co.uk/personal-injury-claim/injury-in-public/public-liability-insurance/,97,New,Support,PI,Public,,https://docs.google.com/document/d/1l6JtqQmxYBHycdoS3UNHBNu6t0YJuNLDK0mS7WKwL6o/edit,"https://www.slatergordon.co.uk/media-centre/blog/2015/06/public-liability-insurance-the-importance-and-pitfalls/ You shouldn't feel bad about suing a business as they will usually have public liability insurance
https://www.slatergordon.co.uk/media-centre/blog/2015/06/public-liability-the-risk-we-owe-to-others/
https://www.slatergordon.co.uk/media-centre/blog/2015/05/should-public-liability-insurance-be-compulsory/
",SEO,Derek,,253265215,,
/personal-injury-claim/injury-in-public/slips-trips-falls/,https://www.slatergordon.co.uk/personal-injury-claim/injury-in-public/slips-trips-falls/,88,New,Service Page,PI,Public,Pages to convert generic trips and falls.,https://docs.google.com/document/d/1ZwXnNMYW_7p-rdLbVeqG6u3mYcLHyVKfn-RVokYKAnI/edit,,Legal,Derek,,253265215,,
/personal-injury-claim/injury-in-public/supermarkets/,https://www.slatergordon.co.uk/personal-injury-claim/injury-in-public/sports-injury/,84,/personal-injury-claim/sports-injuries/,Core Service,PI,Public,"Convert sports injury cases must cover gyms and sports complexes, should link through to horses?",https://docs.google.com/document/d/19vmTVQhbHuUTswqCF6cdJB4s8YYKBHEfYESDkwtHcKs/edit,,Legal,Derek,,253265215,,
/personal-injury-claim/injury-in-public/animals/,https://www.slatergordon.co.uk/personal-injury-claim/injury-in-public/supermarkets/,83,New,Service Page,PI,Public,"Convert Supermarket slips and falls. We need to explain that the supermarket need to clean up mess, lay warning signs etc.",https://docs.google.com/document/d/1yDfDojfbgrJz7YqxqrQWte3OqMc6iZ4u3NWldGNn3LE/edit,,First Draft,Derek,,253265215,,
/personal-injury-claim/injury-in-public/sports-injury/,https://www.slatergordon.co.uk/personal-injury-claim/is-compensation-taxable/,77,New,Support,PI,PI,potentially a Q & A question,https://docs.google.com/document/d/1b-QmyjK8HPtaabo_FIS71-7i73TCTfN554dC_xz9GJI/edit,"This might be merged into a Q&A if too small a page. Is compensation taxable?
https://www.national-accident-helpline.co.uk/personal-injury-claims/is-compensation-taxable",,,,204325345,,
/personal-injury-claim/road-traffic-accidents/professional-drivers-public-safety/,https://www.slatergordon.co.uk/personal-injury-claim/medical-assessment/,72,New,Support,PI,PI,A look at what a medical assessment is and when you might need one,https://docs.google.com/document/d/1LOZ6VWR_OQxBOoJ3CkCnpzd9gOREJeqmXNqcrRLb5rs/edit,"
When do i need a medical assessment? https://www.national-accident-helpline.co.uk/making-a-claim/medical-assessments.html",First Draft,Derek,,204325345,,
/personal-injury-claim/road-traffic-accidents/professional-drivers-public-safety/uber/,https://www.slatergordon.co.uk/personal-injury-claim/no-win-no-fee-claims/,74,No Change,Support,PI,PI,Showcases our no win no fee offering,https://docs.google.com/document/d/12BMyHtjm1S7krmth1r_nq5DvLQhWchfvnN1zvmj9fAw/edit,,,,,204325345,,
/personal-injury-claim/road-traffic-accidents/a-guide-to-road-safety-abroad/,https://www.slatergordon.co.uk/personal-injury-claim/personal-injury-debt/,74,New,Support,PI,PI,How to cope with debts incurred as a result of a PI,https://docs.google.com/document/d/1zvcqQJf-hSf9hUm6tXJWezYAZHQuoAjDuMUVJnKbG9k/edit,How to cope with getting into debt after a PI & loosing earnings/having to pay for medical (https://www.national-accident-helpline.co.uk/compensation-claims/compensation-and-debt.html) Understanding how much it can all cost(https://www.national-accident-helpline.co.uk/personal-injury-claims/real-cost-of-injury),First Draft,Derek,,204325345,,
/personal-injury-claim/road-traffic-accidents/car-accident-claims/,https://www.slatergordon.co.uk/personal-injury-claim/road-traffic-accidents/,76,No Change,Core Service,PI,RTA,Conver RTA cases,https://docs.google.com/document/d/1cuw064qoIYPN37j5DdR9JyvC7110cytcpbf5FH0Jo6g/edit,,Legal,Derek,,116089288,249409251,
/personal-injury-claim/road-traffic-accidents/public-transport/,https://www.slatergordon.co.uk/personal-injury-claim/road-traffic-accidents/a-guide-to-road-safety-abroad/,106,New,Support,PI,RTA,"Featuring tips on road safety, road safety abroad - what different laws apply - links to road safety campaigns, what laws apply to cyclists, 
There are a couple of blogs within the list which I've made a note of which may assist here - although to be honest I don't think they're very good. - Rach
Jack - This might be a bit broad and maybe we have to narrow down the scope of the page a bit as it stands there are a million topics we could cover?",https://docs.google.com/document/d/1cq0E7qTcGnH8ipBBcQRi-72aO3jq6gXT-ypiIoYebRQ/edit,,Legal,Derek,,116089288,,
/personal-injury-claim/road-traffic-accidents/claim-against-uninsured-driver/,https://www.slatergordon.co.uk/personal-injury-claim/road-traffic-accidents/accident-fault/ ,92,New,,PI,RTA,,https://docs.google.com/document/d/1LPus_p19Hv3sBxNC3TSEWuEC-VPvVpTTYVh4MeRCqCM/edit,,,,,116089288,,
/personal-injury-claim/road-traffic-accidents/cycling-accident-claims/,https://www.slatergordon.co.uk/personal-injury-claim/road-traffic-accidents/car-accident-claims/,96,No Change,Service Page,PI,RTA,Sub service designed to drive calls. These pages should be highly unique and specific with relevant case studies this must cover being a passenger as there wont be a separate page.,https://docs.google.com/document/d/1Ek73vB-f-UXX8pO6ySGZEVt3eanlH8iy8xlh505tu6c/edit,,Legal,Derek,,116089288,,
/personal-injury-claim/road-traffic-accidents/faq/,https://www.slatergordon.co.uk/personal-injury-claim/road-traffic-accidents/choosing-car-insurance-law-firm/,108,New,Support,PI,RTA,A guide to help people who are not happy with what their insurance company is offering them. Do I have to accept what my insurance offers me? Do I have to use the lawyer my insurance company is suggesting? What if I do not agree with being at fault or 50/50 blame?,https://docs.google.com/document/d/1s1HXF85jNLiDz7lOVx4iS0JMfC4qlas6_b9gWZJGa0I/edit,Sent to RTA for review ,PI,Derek,,116089288,,
/personal-injury-claim/road-traffic-accidents/what-to-do-in-accident/,https://www.slatergordon.co.uk/personal-injury-claim/road-traffic-accidents/claim-against-uninsured-driver/,107,New,Support,PI,RTA,,https://docs.google.com/document/d/1-lwpEt3GcZ-v5kyi-R4K2Oii93agkGqBV-RtOGqekA0/edit,https://www.injurylawyers4u.co.uk/your-questions-answered/i-was-hit-by-an-uninsured-driver-how-do-i-claim/,Legal,Derek,,116089288,,
/personal-injury-claim/road-traffic-accidents/cycling-accident-claims/,https://www.slatergordon.co.uk/personal-injury-claim/road-traffic-accidents/claiming-against-uber/,98,New,Support,PI,RTA,,https://docs.google.com/document/d/1ZZtKTMZBnTCuhOfmwEVHjQg6Ed-lbpQkXhEXf5PZ_ec/edit,https://www.slatergordon.co.uk/media-centre/blog/2015/10/can-i-claim-if-im-injured-in-an-uber-taxi-collision/,,Charlotte ,,116089288,,
/personal-injury-claim/road-traffic-accidents/cycling-claims-guide/,https://www.slatergordon.co.uk/personal-injury-claim/road-traffic-accidents/cycling-accident-claims/,100,No Change,Service Page,PI,RTA,Sub service designed to drive calls. These pages should be highly unique and specific with relevant case studies,https://docs.google.com/document/d/1xF-oMlPdeaPF0y0oeQkmC2V_FTytF4rR00W6ves5vIg/edit,Just awaiting on the statistics to include here which Charlotte is looking into ,Legal,Derek,,116089288,,
/personal-injury-claim/road-traffic-accidents/guide-to-insurance-and-motor-claims/,https://www.slatergordon.co.uk/personal-injury-claim/road-traffic-accidents/cycling-claims-guide/,,New,Support,PI,,,https://docs.google.com/document/d/1buJjm7gCSo43Ov7HJnQZKOsDJPrqSxLAyi9a3_1HJiw/edit,,,,,116089288,,
/personal-injury-claim/road-traffic-accidents/insurance-offering/,https://www.slatergordon.co.uk/personal-injury-claim/road-traffic-accidents/faq/,80,New,Support,PI,RTA,"Perhaps we can have a facts page for each area, i.e. a statement, confirmation of whether it's true or false then a short discription of the fact. i.e. I'm unable to make a claim if I was partially at fault - FALSE - You can still make a claim even if you were partially at fault. If you're driving down a road and a tree falls on your car, you can't make a claim - FALSE - you may be able to claim against the local authority if they've not maintained it properly. If your partner causes an accident and you're the passenger, you cant make a claim - FALSE - As a passenger you can still make a claim. 
What are your thoughts? - Rach",https://docs.google.com/document/d/1bWptdsle215yPnYt0mwTgdD_gm0enjbD/edit?dls=true,This is currently with RTA lawyers. ,,FAQ,,116089288,,
/personal-injury-claim/road-traffic-accidents/most-dangerous-roads-leaguetable/,https://www.slatergordon.co.uk/personal-injury-claim/road-traffic-accidents/fast-track/,87,/personal-injury-claim/road-traffic-accidents/road-traffic-accident-unit/,Service Page,PI,RTA,Driving volume especially when AAH is depricated,https://docs.google.com/document/d/1Gw9I-cN25Vusv12fPLoKTux653_XFdEojhTDd2-XUYE/edit,,Legal,Derek,,116089288,,
/personal-injury-claim/road-traffic-accidents/motorcycle-accident-claims/,https://www.slatergordon.co.uk/personal-injury-claim/road-traffic-accidents/guide-to-insurance-and-motor-claims/,112,New,Support,PI,RTA,A guide to motor insurance legal policy,https://docs.google.com/document/d/1dsuYTK5WIdAUjt3pGOt57YxkgBFdzjPxCeSv_zFclNs/edit,"Based on this: https://www.irwinmitchell.com/activities/guide-to-motor-insurance-policy-legal-claims 
The conclusion to this is if you arent happy with what your insurer is offering get in touch. - I didnt make this the conclusion as the guide was very general covering most of RTA. I'll use this conclusion in the article about chaning insurance. ",,Rachel,,116089288,,
/personal-injury-claim/road-traffic-accidents/pedestrian-accident-claims/,https://www.slatergordon.co.uk/personal-injury-claim/road-traffic-accidents/insurance-offering/,95,New,Support,PI,RTA,What to do if you aren’t happy with what your insurance is offering?,https://docs.google.com/document/d/1j82qxBvTtFenclxNMLR8WgkqkrqPOJo4tlDLfEPhfTY/edit,"Based on https://www.moneyadviceservice.org.uk/en/articles/what-to-do-if-your-insurance-claim-is-rejected
And https://www.telegraph.co.uk/finance/personalfinance/2819957/Dont-be-a-dummy-over-car-insurance.html 
and https://www.financial-ombudsman.org.uk/publications/technical_notes/motor-insurance-fault-claims.html 
The conclusion to this piece is if you aren’t happy with what your insurance policy is offering get in touch.",First Draft,Rachel,,116089288,,
/personal-injury-claim/road-traffic-accidents/process/,https://www.slatergordon.co.uk/personal-injury-claim/road-traffic-accidents/legal-expense-insurance-claims/,107,New,,PI,RTA,,https://docs.google.com/document/d/1ATO6qags_I2V1PxGQFFVDj0eTCRmwKQaXgTdZHBAWzQ/edit,,,,,116089288,,
/personal-injury-claim/road-traffic-accidents/fast-track/,https://www.slatergordon.co.uk/personal-injury-claim/road-traffic-accidents/motorcycle-accident-claims/,103,No Change,Service Page,PI,RTA,Sub service designed to drive calls. These pages should be highly unique and specific with relevant case studies,https://docs.google.com/document/d/1q7KO3jWorO88lUkUIlb3opeQSpnxk8MhCVZScoHqEkM/edit,,Legal,Derek,,116089288,,
/personal-injury-claim/road-traffic-accidents/what-to-do-in-accident/,https://www.slatergordon.co.uk/personal-injury-claim/road-traffic-accidents/pedestrian-accident-claims/,103,/personal-injury-claim/road-traffic-accidents/accidents-involving-pedestrians/,Service Page,PI,RTA,Sub service designed to drive calls. These pages should be highly unique and specific with relevant case studies,https://docs.google.com/document/d/1s6GW-0x9bpZsfclewIVcCShpzNxNGWr0uXu4ogc2euE/edit,,Legal,Derek,,116089288,,
/personal-injury-claim/road-traffic-accidents/whiplash/,https://www.slatergordon.co.uk/personal-injury-claim/road-traffic-accidents/process/,84,New,Support,PI,RTA,What is the RTA Unit/ What is the RTA unit process,https://docs.google.com/document/d/1U1w8rXh1jOJT2hK73koSzKNfIwIkas8elnAnQCSWp2g/edit,,Legal,Rachel,,116089288,,
/personal-injury-claim/serious/,https://www.slatergordon.co.uk/personal-injury-claim/road-traffic-accidents/professional-drivers-public-safety/,111,New,Support,PI,RTA,,https://docs.google.com/document/d/1l_w49NJoGGVX29xLw47sPE1N0fTyoKB96Q5ssQBxoDc/edit,"https://www.slatergordon.co.uk/media-centre/blog/2015/10/professional-drivers-and-public-safety/
with so many ubers/taxis/busses/deliveroo drivers we should cover this topic. Mention if that you are injured by one of these they probably have public liability insurance ((link through to relevant page) and that should cover your injury",,Charlotte ,,116089288,,
/personal-injury-claim/serious/amputation-limb-damage/,https://www.slatergordon.co.uk/personal-injury-claim/road-traffic-accidents/public-transport/,93,/personal-injury-claim/bus-and-train-accident-claims/,Service Page,PI,RTA,Use https://www.slatergordon.co.uk/personal-injury-claim/bus-and-train-accident-claims/ and cover bus taxi and small para on train link from both public and RTA,https://docs.google.com/document/d/1TeIN7svim50aHRSTibreslPRyKR6FUKf9rmtVveHRak/edit,,,,,116089288,,
/personal-injury-claim/serious/burns-scars-lascerations/,https://www.slatergordon.co.uk/personal-injury-claim/road-traffic-accidents/what-to-do-in-accident/,99,/personal-injury-claim/road-traffic-accidents/motorcycle-accident-claims/what-to-do-in-the-event-of-an-accident/,Support,PI,RTA,Simple guide of what to do at hte roadside,https://docs.google.com/document/d/1lLzTiFRIrWhqwcJ_J_6Uunnk6KxAWsoVmUF7hKM7RQs/edit,,Legal,Derek,,116089288,,
/personal-injury-claim/serious/chronic/,https://www.slatergordon.co.uk/personal-injury-claim/road-traffic-accidents/whiplash/,85,/personal-injury-claim/road-traffic-accidents/whiplash-injury-compensation-claims/,Service Page,PI,RTA,,https://docs.google.com/document/d/1v6yQQPUx6A5r_b2MrNy2_CPya1NADrTlst-Ag-lDVyI/edit,Neck assosciated with whiplash should not be under serious.,Legal,Derek,,116089288,,
/personal-injury-claim/serious/coping-bereavement/,https://www.slatergordon.co.uk/personal-injury-claim/serious/,61,/personal-injury-claim/serious-injury-claims/,Category Hub,PI,Serious,"Showcase that we aren't just a ""ambulance chasers"", we are compassionate and there is more to ur service than just solicitors. Highlight complex specialist case. These lead people down to specific injury tipes such as ""brain"" and then acorss to converting pages such as ""rta""",https://docs.google.com/document/d/12BMyHtjm1S7krmth1r_nq5DvLQhWchfvnN1zvmj9fAw/edit,,SEO,Derek,,111080052,246586028,
/personal-injury-claim/serious/eye-loss-of-sight/,https://www.slatergordon.co.uk/personal-injury-claim/serious/amputation-limb-damage/,84,/personal-injury-claim/serious-injury-claims/amputation-claims/,Support,PI,Serious,This page is designed to direct users to showcase testimonials and our specialty in an area & direct users to a core service page whee they can covert,https://docs.google.com/document/d/1xTsr31xhVQLgwmgYx1T9SnzXJLQO6hmWNpznHCTEw2o/edit,"Should discuss broken bones, IM has a page just for this.",First Draft,Derek,,111080052,,
/personal-injury-claim/serious/faq/,https://www.slatergordon.co.uk/personal-injury-claim/serious/burns-scars-lascerations/,86,New,Support,PI,Serious,This page is designed to direct users to showcase testimonials and our specialty in an area & direct users to a core service page whee they can covert,https://docs.google.com/document/d/1gNCe4mO3l7vokPocJKYu4G6un3daQigjNqqqn7YGlBU/edit,A page to cover various forms of disfigurement. This can be linked to from various areas of the website such as work.,First Draft,Derek,,111080052,,
/personal-injury-claim/serious/fatal/,https://www.slatergordon.co.uk/personal-injury-claim/serious/chronic/,69,New,Support,PI,Serious,This page is designed to direct users to showcase testimonials and our specialty in an area & direct users to a core service page whee they can covert,https://docs.google.com/document/d/1D6Bfa4yOZ5dSdyL-rMHAP9qt6k1GpijIEOL67sJPrPk/edit,,First Draft,Derek,,111080052,,
/personal-injury-claim/serious/head-brain/,https://www.slatergordon.co.uk/personal-injury-claim/serious/coping-bereavement/,80,/personal-injury-claim/fatal-accident-claims/bereavement-useful-support-groups/,Support,PI,Serious,"https://www.irwinmitchell.com/personal/personal-injury-compensation/serious-injury/fatal-accident-claims/coping-with-bereavement
",https://docs.google.com/document/d/1qhg3OATn29Qr5ZsI_H51KX5A5F2Zzutb-RG0eHmnYKo/edit,https://www.slatergordon.co.uk/personal-injury-claim/fatal-accident-claims/bereavement-useful-support-groups/,,Rachel,,111080052,,
/personal-injury-claim/serious/house-adaptations/,https://www.slatergordon.co.uk/personal-injury-claim/serious/eye-loss-of-sight/,79,New,Support,PI,Serious,This page is designed to direct users to showcase testimonials and our specialty in an area & direct users to a core service page whee they can covert,https://docs.google.com/document/d/1rNc7HuBTe9nfAGu4t_Ya50OBXLKEDRhQFQTL8dpRhcU/edit,,First Draft,Derek,,111080052,,
/personal-injury-claim/serious/rehabilitation/,https://www.slatergordon.co.uk/personal-injury-claim/serious/faq/,65,New,Support,PI,Serious,Commonly asked Serious injury questions,https://docs.google.com/document/d/18e8jPvz_Krgq63jQ9nbncHwq-DYvloWg3iyJ27sa38g/edit,,,FAQ,,111080052,,
/personal-injury-claim/serious/spine/,https://www.slatergordon.co.uk/personal-injury-claim/serious/fatal/,67,/personal-injury-claim/fatal-accident-claims/,Support,PI,Serious,This page is designed to direct users to showcase testimonials and our specialty in an area & direct users to a core service page whee they can covert,https://docs.google.com/document/d/1cgVvNVlIvAfbt-XQCI49_cxBTYdf47NpuKQra7H-6wc/edit,Leg & amputation page received virtually no traffic last year. These should be merged to serve an even wider purporse.,First Draft,Derek,,111080052,,
/personal-injury-claim/serious/welfare-benefits/,https://www.slatergordon.co.uk/personal-injury-claim/serious/head-brain/,72,/personal-injury-claim/head-injury-compensation-specialists/,Support,PI,Serious,This page is designed to direct users to showcase testimonials and our specialty in an area & direct users to a core service page whee they can covert,https://docs.google.com/document/d/1rnp9qr_CxHjdRrP4Vyth5ZbIG4cGA2wTUV-X5NoLo9I/edit,"Head and brain pages do not currently receive enough traffic separately, these shoudl be consolidated",First Draft,Derek,,111080052,,
/personal-injury-claim/accident-at-work-compensation/,https://www.slatergordon.co.uk/personal-injury-claim/serious/house-adaptations/,79,New,Support,PI,Serious,After a life changing serious injury there are a wide variety of house adaptations that you might need in order to help you live an easier life. This article lists the most common ones,https://docs.google.com/document/d/16lcqpSJCTfxmI2sjfln1uf92mur9uuWReefx20ZGEzU/edit,https://www.irwinmitchell.com/great-adaptations.html,First Draft,Derek,,111080052,,
/personal-injury-claim/accident-at-work-compensation/big-six-health-safety-regulations/,https://www.slatergordon.co.uk/personal-injury-claim/serious/interim-payments/,,https://www.slatergordon.co.uk/personal-injury-claim/serious-injury-claims/interim-payments/,,,,,,,,,,111080052,,
/personal-injury-claim/accident-at-work-compensation/construction-site/,https://www.slatergordon.co.uk/personal-injury-claim/serious/rehabilitation/,76,/personal-injury-claim/serious-injury-claims/rehabilitation/,Support,PI,Serious,This needs to lead on from serious injurycases to highlight that we also offer help with rehabilitation,https://docs.google.com/document/d/1XAFPjm5LWY9vqB4WT9iSMhxPnF9CjoShnF9rAYSxM5U/edit,https://www.slatergordon.co.uk/media-centre/blog/2018/01/personal-injury-claims-accessing-rehabilitation/ and https://www.slatergordon.co.uk/human-rights-solicitors/mental-health-aftercare/,First Draft,Derek,,111080052,,
/personal-injury-claim/accident-at-work-compensation/defective-equipment/,https://www.slatergordon.co.uk/personal-injury-claim/serious/spine/,67,New,Support,PI,Serious,This page is designed to direct users to showcase testimonials and our specialty in an area & direct users to a core service page whee they can covert,https://docs.google.com/document/d/12K2WJsREAvNJoZsntImT2W1dWoPeI9lxuFHTwUPMBUc/edit,,Writer Check,Derek,,111080052,,
/personal-injury-claim/accident-at-work-compensation/electrocution/,https://www.slatergordon.co.uk/personal-injury-claim/serious/welfare-benefits/,78,/personal-injury-claim/serious-injury-claims/benefits/,Support,PI,Serious,Advice on how to manage money in order to receive government help after a serious injury,https://docs.google.com/document/d/1IMelpCtxyYkVGnnMMHhaFJLpGUfu8K56F2IA2-G0PjA/edit,https://www.irwinmitchell.com/personal/personal-injury-compensation/serious-injury/welfare-issues-after-serious-injury,First Draft,Derek,,111080052,,
/personal-injury-claim/accident-at-work-compensation/employers-liability-insurance/,https://www.slatergordon.co.uk/personal-injury-claim/sexual-criminal-abuse/,75,/personal-injury-claim/sexual-abuse-compensation-solicitors/,Core Service,PI,Abuse,Abuse claim conversion page also entry section for CICA/ criminal subsection,https://docs.google.com/document/d/1I3Cd5hITKknTI5XoHLxeZ-dV52tH_zo7FXAcXzHrPvY,,Legal,Derek,,72149338,107602301,
/personal-injury-claim/accident-at-work-compensation/factory-warehouse/,https://www.slatergordon.co.uk/personal-injury-claim/sexual-criminal-abuse/abuse-criminal-injury/,97,/personal-injury-claim/criminal-injury-claims/,Service Page,PI,Abuse,,https://docs.google.com/document/d/1q_IdVK1etbxX38j2C59f2Nplr8PqwgtX_k6ps5hgF7k/edit,,,Jack,,72149338,,
/personal-injury-claim/accident-at-work-compensation/fall-heights-objects/,https://www.slatergordon.co.uk/personal-injury-claim/sexual-criminal-abuse/abuse-criminal-injury/cica-faq/,106,New,Support,PI,Abuse,,https://docs.google.com/document/d/1_TLQsl7WDW6U3tGUvmU8fnMllAvZIrQmYKATAawHqfk/edit,,,,,72149338,,
/personal-injury-claim/accident-at-work-compensation/faq/,https://www.slatergordon.co.uk/personal-injury-claim/sexual-criminal-abuse/abuse-criminal-injury/cica-process/,110,/personal-injury-claim/sexual-abuse-compensation-solicitors/abuse-claims-cica/,Support,PI,Abuse,CICA process explained & convert criminal injury cases,Not neded,https://www.slatergordon.co.uk/personal-injury-claim/sexual-abuse-compensation-solicitors/abuse-claims-cica/,,Jack,,72149338,,
/personal-injury-claim/accident-at-work-compensation/farm/,https://www.slatergordon.co.uk/personal-injury-claim/sexual-criminal-abuse/abuse-guide/,87,New,Support,PI,Abuse,A page to cover the process of abuse claims and covers funding,https://docs.google.com/document/d/1jX0bYzC8PfgjB6UNSuTqCV-dObJphqL09rrq-EuBfg8/edit,https://www.slatergordon.co.uk/resources/expert-guides/personal-injury-your-guide-to-abuse-and-sexual-assault/,First Draft,Derek,,72149338,,
/personal-injury-claim/accident-at-work-compensation/forklift/,https://www.slatergordon.co.uk/personal-injury-claim/sexual-criminal-abuse/child-abuse/,87,/personal-injury-claim/sexual-abuse-compensation-solicitors/child-abuse-compensation/,Service Page,PI,Abuse,Convert Child abuse cases,https://docs.google.com/document/d/1K3R_VzomtU-lsuLDCidYRSlNCfa6KtY4tBxTd0NfTUs/edit,,First Draft,Derek,,72149338,,
/personal-injury-claim/accident-at-work-compensation/health-safety-dangerous-practices/,https://www.slatergordon.co.uk/personal-injury-claim/sexual-criminal-abuse/confidentiality-anonymity/,101,/personal-injury-claim/sexual-abuse-compensation-solicitors/abuse-claims-confidentiality/,Support,PI,Abuse,An article to discuss that right from the start your details is safe with us but even as we go through to court etc. discuss the extra steps we go through to ensure your identity and personal information is looked after,https://docs.google.com/document/d/1VUlnXm6G7eUF2JLkU482E_99FTnHgvmBDqFCFr3PzO4/edit,,,,,72149338,,
/personal-injury-claim/accident-at-work-compensation/migrant-agency-worker/,https://www.slatergordon.co.uk/personal-injury-claim/sexual-criminal-abuse/faq/,79,New,Support,PI,Abuse,In the core sexual physical abuse conversion page there are some topics that were not covered as it was getting too long,https://docs.google.com/document/d/1GTBGEhdgPE8XHDkEZkUasGCXE4i-QwuS3EQHRkTf2C8/edit,,,FAQ,,72149338,,
/personal-injury-claim/accident-at-work-compensation/military/,https://www.slatergordon.co.uk/personal-injury-claim/sexual-criminal-abuse/help-support/,88,/personal-injury-claim/sexual-abuse-compensation-solicitors/abuse-claims-help-and-support/,Support,PI,Abuse,,https://docs.google.com/document/d/1yP1nBzUrX6PwCcQCMhYmtzIEWn-58RIZPbs9M6ZxsnU/edit,https://www.slatergordon.co.uk/personal-injury-claim/sexual-abuse-compensation-solicitors/abuse-claims-help-and-support/,,Jack,,72149338,,
/personal-injury-claim/accident-at-work-compensation/military/armed-forces-compensation-scheme/,https://www.slatergordon.co.uk/personal-injury-claim/signed-a-waiver/,69,New,Support,PI,PI,Page to entice people to contact us even if they have signed a waiver for an event.,https://docs.google.com/document/d/1r-JQWlKjG9XWI0zc3BhTPz4d2TuagiMNlG-1XOExA2w/edit,https://www.slatergordon.co.uk/media-centre/blog/2015/11/can-i-make-a-personal-injury-claim-if-ive-signed-a-waiver/,,,,204325345,,
/personal-injury-claim/accident-at-work-compensation/military/faq/,https://www.slatergordon.co.uk/personal-injury-claim/strong-claim-solicitor-take-it-on/,87,New,Support,PI,PI,,https://docs.google.com/document/d/1T5lDS7S8N20YJl5Y2tdsRBmGZkb12u20/edit?dls=true,https://www.quittance.co.uk/personal-injury/advice/general/i-have-strong-claim-why-wont-a-solicitor-take-it-on,,,,204325345,,
/personal-injury-claim/accident-at-work-compensation/military/ptsd/,https://www.slatergordon.co.uk/personal-injury-claim/support/,61,New,Support,PI,Serious,A variety of different support networks you can approach after ,https://docs.google.com/document/d/1IdZSOz1DnYn7ILTveuZwSuVFwfeCJPBuR4URahh5Lt4/edit,,,,,204325345,,
/personal-injury-claim/accident-at-work-compensation/needlestick/,https://www.slatergordon.co.uk/personal-injury-claim/what-can-i-claim-for/,74,New,Support,PI,PI,A broken down explanation of everything that can be claimed for,https://docs.google.com/document/d/16k2QmGymuj6htldVAxdfRfmy94fElnRXghI1syOKxAM/edit,https://www.national-accident-helpline.co.uk/making-a-claim/special-damages,First Draft,Derek,,204325345,,
/personal-injury-claim/accident-at-work-compensation/steps-to-take/,https://www.slatergordon.co.uk/personal-injury/industrial-disease/asbestos-mesothelioma/benefits,96,new,Support,PI,ID,Details of the benefits and one off payments available for asbestos related diseases,https://docs.google.com/document/d/1hUaINynKPTvs8MTtqcb83YdKNCR--NLwHwtVmJ565EE/edit,,,,,207649491,,
/personal-injury-claim/accident-at-work-compensation/toxic-noxious-guide/,https://www.slatergordon.co.uk/personal-injury/industrial-disease/asbestos-mesothelioma/improper-handling-of-asbestos,117,New,Support,PI,ID,Page covering what you should and shouldn't and the legal implications ,https://docs.google.com/document/d/12F-a5oadFd88OEoCFqWargPCgf-ewHdjpS7856Fpu6M/edit,"https://www.slatergordon.co.uk/media-centre/blog/2017/04/illegal-removal-of-asbestos-the-risks-and-consequences/
https://www.slatergordon.co.uk/media-centre/blog/2015/06/dangers-and-consequences-of-disposing-of-asbestos/
https://www.slatergordon.co.uk/media-centre/blog/2015/05/cleeve-restaurant-fined-for-spreading-asbestos/",First Draft,Derek,,207649491,,
/personal-injury-claim/accident-at-work-compensation/military/armed-forces-compensation-scheme/,https://www.slatergordon.co.uk/personal-injury/industrial-disease/asbestos-mesothelioma/scottish-pleural-plaques,112,new,Support,PI,ID,Page about claiming pleural plaques in Scotland ,https://docs.google.com/document/d/1KCzuSfJS_KJM_d87ISMMB36pPRQMmDwUnkPILLW6Sl4/edit,,,,,207649491,,